ibd-aerophilicity-enrichment • bugphyzzAnalyses
…
Annotations

I’ll use benchdamic. So I need the prior_info file.

taxa_data <- tidy_data |> 
    dplyr::filter(taxon_name %in% rownames(tse_subset)) |> 
    select(all_of(c('taxon_name', rank_cols))) |> 
    distinct()

aer <- as_tibble(physiologies('aerophilicity')[[1]])
#> Finished aerophilicity
tidy_data
#> # A tibble: 942,033 × 34
#>    taxon_…¹ sample relat…² study…³ subje…⁴ body_…⁵ antib…⁶ study…⁷ disease   age
#>    <chr>    <chr>    <dbl> <chr>   <chr>   <chr>   <chr>   <chr>   <chr>   <int>
#>  1 821      CSM5F… 8436640 HMP_20… C3001   stool   no      IBD     IBD        43
#>  2 820      CSM5F… 6235541 HMP_20… C3001   stool   no      IBD     IBD        43
#>  3 818      CSM5F… 1357098 HMP_20… C3001   stool   no      IBD     IBD        43
#>  4 853      CSM5F… 1054351 HMP_20… C3001   stool   no      IBD     IBD        43
#>  5 301302   CSM5F…  999360 HMP_20… C3001   stool   no      IBD     IBD        43
#>  6 47678    CSM5F…  551484 HMP_20… C3001   stool   no      IBD     IBD        43
#>  7 1531     CSM5F…  334448 HMP_20… C3001   stool   no      IBD     IBD        43
#>  8 817      CSM5F…  168192 HMP_20… C3001   stool   no      IBD     IBD        43
#>  9 1150298  CSM5F…  139201 HMP_20… C3001   stool   no      IBD     IBD        43
#> 10 292800   CSM5F…  133264 HMP_20… C3001   stool   no      IBD     IBD        43
#> # … with 942,023 more rows, 24 more variables: age_category <chr>,
#> #   gender <chr>, country <chr>, non_westernized <chr>,
#> #   sequencing_platform <chr>, DNA_extraction_kit <chr>, PMID <chr>,
#> #   number_reads <int>, number_bases <dbl>, minimum_read_length <int>,
#> #   median_read_length <int>, curator <chr>, BMI <dbl>,
#> #   days_from_first_collection <int>, location <chr>, visit_number <int>,
#> #   disease_subtype <chr>, superkingdom <int>, phylum <int>, class <int>, …
…
